…
The code chunk below gives out a few illustrative examples of
observations.

``` r
print(instacart, width = Inf)
```

    ## # A tibble: 1,384,617 × 15
    ##   order_id product_id add_to_cart_order reordered user_id eval_set order_number
    ##      <int>      <int>             <int>     <int>   <int> <chr>           <int>
    ## 1        1      49302                 1         1  112108 train               4
    ## 2        1      11109                 2         1  112108 train               4
    ## 3        1      10246                 3         0  112108 train               4
    ## 4        1      49683                 4         0  112108 train               4
    ## 5        1      43633                 5         1  112108 train               4
    ##   order_dow order_hour_of_day days_since_prior_order
    ##       <int>             <int>                  <int>
    ## 1         4                10                      9
    ## 2         4                10                      9
    ## 3         4                10                      9
    ## 4         4                10                      9
    ## 5         4                10                      9
    ##   product_name                                  aisle_id department_id
    ##   <chr>                                            <int>         <int>
    ## 1 Bulgarian Yogurt                                   120            16
    ## 2 Organic 4% Milk Fat Whole Milk Cottage Cheese      108            16
    ## 3 Organic Celery Hearts                               83             4
    ## 4 Cucumber Kirby                                      83             4
    ## 5 Lightly Smoked Sardines in Olive Oil                95            15
    ##   aisle                department  
    ##   <chr>                <chr>       
    ## 1 yogurt               dairy eggs  
    ## 2 other creams cheeses dairy eggs  
    ## 3 fresh vegetables     produce     
    ## 4 fresh vegetables     produce     
    ## 5 canned meat seafood  canned goods
    ## # ℹ 1,384,612 more rows
…
How many aisles are there, and which aisles are the most items ordered
from?

``` r
instacart |>
  group_by(aisle_id, aisle) |>
  summarize(n_obs = n()) |>
  arrange(desc(n_obs))
```

    ## `summarise()` has grouped output by 'aisle_id'. You can override using the
    ## `.groups` argument.

    ## # A tibble: 134 × 3
    ## # Groups:   aisle_id [134]
    ##   aisle_id aisle                       n_obs
    ##      <int> <chr>                       <int>
    ## 1       83 fresh vegetables           150609
    ## 2       24 fresh fruits               150473
    ## 3      123 packaged vegetables fruits  78493
    ## 4      120 yogurt                      55240
    ## 5       21 packaged cheese             41699
    ## # ℹ 129 more rows
…
